# Fdb version 3
["pdflatex"] 1542202386 "/home/kino/Projects/nullable-types/doc/tex_templates/template.latex" "template.pdf" "template" 1542202386
  "$documentclass$.cls" 0 -1 0 ""
  "/home/kino/Projects/nullable-types/doc/tex_templates/template.latex" 1542202385 8910 8f6b3b55eb2b96ead647da08ebb3a651 ""
  "/usr/share/texmf-dist/web2c/texmf.cnf" 1536122179 33301 a3134070eacafb10b1f371612ce2650d ""
  "/var/lib/texmf/web2c/pdftex/pdflatex.fmt" 1537293109 7908119 add5b6653bdda865a8cb6f4c08c1e77f ""
  "template.aux" 1542202386 8 a94a2480d3289e625eea47cd1b285758 ""
  "template.latex" 1542202385 8910 8f6b3b55eb2b96ead647da08ebb3a651 ""
  (generated)
  "template.pdf"
  "template.log"
